<svg width="294" height="101" viewBox="0 0 294 101" fill="none" xmlns="http://www.w3.org/2000/svg">
<g clip-path="url(#clip0_60_155)">
<path d="M112.798 56.2846V73.9798C112.272 74.0709 111.699 74.1396 111.079 74.1862C110.458 74.2317 109.822 74.255 109.172 74.255C108.521 74.255 107.877 74.2317 107.24 74.1862C106.605 74.1396 106.025 74.0709 105.497 73.9798V58.7287C105.497 56.9462 104.768 56.0539 103.312 56.0539H102.614C102.428 55.4712 102.336 54.6579 102.336 53.6139C102.336 52.6003 102.428 51.7394 102.614 51.0323C103.419 50.9705 104.163 50.9169 104.843 50.8704C105.526 50.8249 106.147 50.8016 106.705 50.8016H107.73C109.312 50.8016 110.552 51.2943 111.45 52.2786C112.349 53.2609 112.798 54.5962 112.798 56.2846ZM104.66 41.7213C105.558 41.2307 106.72 40.9849 108.147 40.9849C109.606 40.9849 110.738 41.2307 111.544 41.7213C111.914 42.5529 112.1 43.4441 112.1 44.396C112.1 45.349 111.914 46.2392 111.544 47.0667C110.643 47.528 109.464 47.7587 108.008 47.7587C106.551 47.7587 105.436 47.528 104.66 47.0667C104.289 46.2392 104.104 45.349 104.104 44.396C104.104 43.4441 104.289 42.5529 104.66 41.7213Z" fill="#006C32"/>
<path d="M139.674 58.773V68.2175C139.674 70.2468 140.046 71.7683 140.789 72.7819C139.613 73.8259 138.202 74.3479 136.559 74.3479C134.947 74.3479 133.845 73.9797 133.255 73.2432C132.667 72.5047 132.373 71.3818 132.373 69.8765V60.0638C132.373 59.0198 132.232 58.253 131.953 57.7614C131.675 57.2677 131.133 57.0209 130.327 57.0209C129.862 57.0209 129.335 57.1443 128.747 57.3891C128.159 57.6349 127.555 58.0345 126.934 58.5869V73.9797C126.405 74.0707 125.832 74.1395 125.211 74.186C124.592 74.2315 123.958 74.2548 123.308 74.2548C122.655 74.2548 122.018 74.2315 121.397 74.186C120.779 74.1395 120.206 74.0707 119.678 73.9797V50.9835L120.005 50.6639H122.749C124.64 50.6639 125.911 51.5855 126.563 53.4276C128.732 51.5237 130.887 50.5708 133.027 50.5708C135.196 50.5708 136.845 51.3174 137.976 52.8085C139.108 54.2976 139.674 56.2864 139.674 58.773Z" fill="#006C32"/>
<path d="M155.298 68.4967L159.34 51.0321C160.208 50.846 161.186 50.7529 162.272 50.7529C163.603 50.7529 164.765 50.938 165.759 51.3073L165.992 51.631C162.829 63.0582 160.674 70.5078 159.528 73.9797C157.946 74.1628 156.279 74.2548 154.526 74.2548C152.775 74.2548 151.529 74.0171 150.786 73.5426C150.043 73.0651 149.469 72.1506 149.067 70.7991L143.485 51.5379C145.004 50.8935 146.352 50.5708 147.531 50.5708C148.709 50.5708 149.624 50.8247 150.275 51.3315C150.926 51.8394 151.407 52.7063 151.717 53.9334L153.808 62.5524C153.963 63.1351 154.304 64.9945 154.832 68.1284C154.862 68.3743 155.017 68.4967 155.298 68.4967Z" fill="#006C32"/>
<path d="M178.591 56.2846V73.9798C178.065 74.0709 177.492 74.1396 176.872 74.1862C176.251 74.2317 175.615 74.255 174.965 74.255C174.313 74.255 173.67 74.2317 173.033 74.1862C172.398 74.1396 171.818 74.0709 171.29 73.9798V58.7287C171.29 56.9462 170.561 56.0539 169.105 56.0539H168.407C168.221 55.4712 168.129 54.6579 168.129 53.6139C168.129 52.6003 168.221 51.7394 168.407 51.0323C169.212 50.9705 169.955 50.9169 170.636 50.8704C171.319 50.8249 171.94 50.8016 172.498 50.8016H173.523C175.105 50.8016 176.345 51.2943 177.243 52.2786C178.142 53.2609 178.591 54.5962 178.591 56.2846ZM170.453 41.7213C171.351 41.2307 172.513 40.9849 173.94 40.9849C175.399 40.9849 176.531 41.2307 177.337 41.7213C177.707 42.5529 177.893 43.4441 177.893 44.396C177.893 45.349 177.707 46.2392 177.337 47.0667C176.436 47.528 175.257 47.7587 173.801 47.7587C172.344 47.7587 171.228 47.528 170.453 47.0667C170.082 46.2392 169.897 45.349 169.897 44.396C169.897 43.4441 170.082 42.5529 170.453 41.7213Z" fill="#006C32"/>
<path d="M199.052 50.9392C199.237 51.8001 199.329 52.661 199.329 53.5209C199.329 54.3818 199.237 55.2265 199.052 56.054L193.515 55.9609V66.5627C193.515 68.0062 194.197 68.7275 195.561 68.7275H198.166C198.568 69.8342 198.77 70.8479 198.77 71.7705C198.77 72.691 198.709 73.3506 198.586 73.7492C196.291 74.0567 194.182 74.2105 192.261 74.2105C188.354 74.2105 186.402 72.076 186.402 67.8049V56.0094L182.776 56.054C182.558 55.2851 182.449 54.4475 182.449 53.5411C182.449 52.6347 182.558 51.7677 182.776 50.9392L186.402 51.0323V48.3576C186.402 46.7906 186.704 45.6778 187.308 45.0192C187.912 44.3586 188.927 44.0278 190.354 44.0278H193.192L193.515 44.3516V51.0323L199.052 50.9392Z" fill="#006C32"/>
<path d="M222.391 64.8106H210.255C210.318 66.1925 210.674 67.2668 211.325 68.0356C211.976 68.8045 213.045 69.1889 214.535 69.1889C215.278 69.1889 216.136 69.0817 217.111 68.8652C218.088 68.6497 219.212 68.2966 220.484 67.805C221.507 68.849 222.143 70.2632 222.391 72.0457C219.91 73.7968 216.872 74.6719 213.277 74.6719C211.325 74.6719 209.69 74.3643 208.373 73.7493C207.055 73.1342 205.985 72.2743 205.164 71.1676C204.341 70.0619 203.76 68.7559 203.42 67.2506C203.079 65.7453 202.91 64.1025 202.91 62.322C202.91 60.6013 203.118 59.011 203.534 57.5512C203.953 56.0925 204.589 54.8259 205.441 53.7516C206.293 52.6752 207.378 51.8315 208.696 51.2185C210.012 50.6034 211.556 50.2959 213.326 50.2959C214.812 50.2959 216.152 50.5417 217.344 51.0324C218.538 51.524 219.554 52.1998 220.39 53.0596C221.228 53.9205 221.873 54.9493 222.322 56.1471C222.771 57.3449 222.995 58.6509 222.995 60.0641C222.995 61.9366 222.793 63.5188 222.391 64.8106ZM210.211 59.8334H216.348V59.3276C216.348 58.1896 216.092 57.2518 215.58 56.5153C215.068 55.7789 214.3 55.4106 213.277 55.4106C212.286 55.4106 211.55 55.7566 211.068 56.4465C210.588 57.1375 210.302 58.2664 210.211 59.8334Z" fill="#006C32"/>
<path d="M237.875 68.7272H239.128C239.501 69.7419 239.688 70.7565 239.688 71.7702C239.688 72.7818 239.641 73.4414 239.549 73.7489C237.689 74.0564 236.03 74.2102 234.571 74.2102C232.464 74.2102 230.968 73.6963 230.084 72.6685C229.202 71.6387 228.761 70.0171 228.761 67.8046V40.3857L229.038 40.062H231.876C233.332 40.062 234.355 40.3857 234.943 41.0332C235.533 41.6786 235.829 42.7995 235.829 44.3958V66.5624C235.829 68.006 236.511 68.7272 237.875 68.7272Z" fill="#006C32"/>
<path d="M264.472 70.6614C264.317 71.3068 264.021 71.9988 263.586 72.7373C263.154 73.4737 262.704 74.0099 262.239 74.3478C260.069 74.285 258.394 73.4727 257.216 71.9077C255.201 73.7509 253.017 74.6715 250.663 74.6715C249.451 74.6715 248.396 74.4783 247.498 74.0928C246.6 73.7104 245.84 73.1965 245.22 72.5511C244.599 71.9067 244.133 71.1622 243.823 70.3175C243.515 69.4708 243.362 68.5876 243.362 67.667C243.362 66.3459 243.601 65.1855 244.08 64.1871C244.562 63.1896 245.221 62.3601 246.057 61.6985C246.895 61.0379 247.872 60.5392 248.988 60.2013C250.104 59.8644 251.297 59.6955 252.565 59.6955C253.278 59.6955 253.906 59.7036 254.448 59.7198C254.992 59.7339 255.466 59.7552 255.869 59.7845V58.9105C255.869 56.9763 254.861 56.0091 252.847 56.0091C251.543 56.0091 249.264 56.5008 246.012 57.4821C245.081 56.4087 244.491 54.7345 244.244 52.4604C244.987 52.1832 245.816 51.9212 246.73 51.6754C247.645 51.4306 248.582 51.2161 249.544 51.032C250.504 50.8458 251.451 50.7002 252.382 50.595C253.313 50.4877 254.15 50.4331 254.893 50.4331C255.976 50.4331 257.021 50.5869 258.029 50.8944C259.039 51.1999 259.924 51.6673 260.683 52.2985C261.443 52.9278 262.047 53.7421 262.496 54.7426C262.945 55.7411 263.17 56.9307 263.17 58.3116V67.667C263.17 69.0813 263.604 70.0787 264.472 70.6614ZM250.43 67.2057C250.43 68.6493 251.267 69.3706 252.941 69.3706C253.807 69.3706 254.783 68.9255 255.869 68.0353V64.3489C255.248 64.3196 254.728 64.2963 254.309 64.2801C253.893 64.264 253.575 64.2559 253.358 64.2559C251.406 64.2559 250.43 65.2392 250.43 67.2057Z" fill="#006C32"/>
<path d="M289.814 58.7729V68.2174C289.814 70.276 290.2 71.7975 290.974 72.7818C289.798 73.8258 288.373 74.3478 286.698 74.3478C285.083 74.3478 283.983 73.9796 283.395 73.2431C282.807 72.5046 282.513 71.3817 282.513 69.8764V60.0637C282.513 59.0197 282.372 58.2529 282.092 57.7613C281.815 57.2676 281.273 57.0208 280.467 57.0208C280.002 57.0208 279.473 57.1442 278.883 57.389C278.295 57.6348 277.691 58.0344 277.07 58.5868V73.9796C276.046 74.1627 274.869 74.2547 273.538 74.2547C272.204 74.2547 271.025 74.1627 270.002 73.9796V40.3857L270.328 40.062H273.117C274.606 40.062 275.637 40.3857 276.208 41.0332C276.782 41.6786 277.07 42.7995 277.07 44.3958V53.1038C279.146 51.4154 281.224 50.5707 283.301 50.5707C285.377 50.5707 286.982 51.3173 288.115 52.8084C289.247 54.2975 289.814 56.2863 289.814 58.7729Z" fill="#006C32"/>
<path d="M10.2787 67.6559L23.619 54.436L25.4881 56.2893L12.1489 69.5092L10.2787 67.6559Z" fill="#006C32"/>
<path d="M4.37427 73.5072L8.02579 69.8887L9.89596 71.742L6.24443 75.3605L4.37427 73.5072Z" fill="#006C32"/>
<path d="M7.93799 91.3362L30.6668 68.8125L32.536 70.6658L9.80815 93.1895L7.93799 91.3362Z" fill="#006C32"/>
<path d="M0.206207 88.3186L17.6431 71.0381L19.5132 72.8914L2.07637 90.1708L0.206207 88.3186Z" fill="#006C32"/>
<path d="M31.8765 89.0587L45.2168 75.8389L47.0859 77.6922L33.7467 90.911L31.8765 89.0587Z" fill="#006C32"/>
<path d="M25.972 94.9101L29.6236 91.2915L31.4927 93.1448L27.8412 96.7633L25.972 94.9101Z" fill="#006C32"/>
<path d="M11.027 99.0407L28.4629 81.7612L30.333 83.6145L12.8962 100.894L11.027 99.0407Z" fill="#006C32"/>
<path d="M102.124 25.576L76.2052 -0.10498L72.8865 28.8698L102.124 25.576Z" fill="#006C32"/>
<path d="M28.7957 46.8158L54.785 72.5655L58.7285 42.9028L28.7957 46.8158Z" fill="#006C32"/>
<path d="M60.9019 42.5995L57.0095 71.8838L101.535 27.752L72.6047 31.0114C71.5186 36.9071 66.8717 41.5241 60.9019 42.5995Z" fill="#006C32"/>
<path d="M70.6508 29.7992L74.0094 0.479492L29.4827 44.6113L59.9158 40.6327C65.5906 39.8911 70.0057 35.436 70.6508 29.7992Z" fill="#006C32"/>
</g>
<defs>
<clipPath id="clip0_60_155">
<rect width="294" height="101" fill="white"/>
</clipPath>
</defs>
</svg>
